%YAML 1.1
%TAG !u! tag:unity3d.com,2011:
--- !u!1 &4190951249334489065
GameObject:
  m_ObjectHideFlags: 0
  m_CorrespondingSourceObject: {fileID: 0}
  m_PrefabInstance: {fileID: 0}
  m_PrefabAsset: {fileID: 0}
  serializedVersion: 6
  m_Component:
  - component: {fileID: 5794313813365048876}
  - component: {fileID: 4712481682501891677}
  m_Layer: 31
  m_Name: TestPalette
  m_TagString: Untagged
  m_Icon: {fileID: 0}
  m_NavMeshLayer: 0
  m_StaticEditorFlags: 0
  m_IsActive: 1
--- !u!4 &5794313813365048876
Transform:
  m_ObjectHideFlags: 0
  m_CorrespondingSourceObject: {fileID: 0}
  m_PrefabInstance: {fileID: 0}
  m_PrefabAsset: {fileID: 0}
  m_GameObject: {fileID: 4190951249334489065}
  m_LocalRotation: {x: 0, y: 0, z: 0, w: 1}
  m_LocalPosition: {x: 0, y: 0, z: 0}
  m_LocalScale: {x: 1, y: 1, z: 1}
  m_Children:
  - {fileID: 2104005849732927049}
  m_Father: {fileID: 0}
  m_RootOrder: 0
  m_LocalEulerAnglesHint: {x: 0, y: 0, z: 0}
--- !u!156049354 &4712481682501891677
Grid:
  m_ObjectHideFlags: 0
  m_CorrespondingSourceObject: {fileID: 0}
  m_PrefabInstance: {fileID: 0}
  m_PrefabAsset: {fileID: 0}
  m_GameObject: {fileID: 4190951249334489065}
  m_Enabled: 1
  m_CellSize: {x: 1.28, y: 1.28, z: 0}
  m_CellGap: {x: 0, y: 0, z: 0}
  m_CellLayout: 0
  m_CellSwizzle: 0
--- !u!1 &4915503981619166303
GameObject:
  m_ObjectHideFlags: 0
  m_CorrespondingSourceObject: {fileID: 0}
  m_PrefabInstance: {fileID: 0}
  m_PrefabAsset: {fileID: 0}
  serializedVersion: 6
  m_Component:
  - component: {fileID: 2104005849732927049}
  - component: {fileID: 4711328947242849152}
  - component: {fileID: 5378729723534989236}
  m_Layer: 0
  m_Name: Layer1
  m_TagString: Untagged
  m_Icon: {fileID: 0}
  m_NavMeshLayer: 0
  m_StaticEditorFlags: 0
  m_IsActive: 1
--- !u!4 &2104005849732927049
Transform:
  m_ObjectHideFlags: 0
  m_CorrespondingSourceObject: {fileID: 0}
  m_PrefabInstance: {fileID: 0}
  m_PrefabAsset: {fileID: 0}
  m_GameObject: {fileID: 4915503981619166303}
  m_LocalRotation: {x: -0, y: -0, z: -0, w: 1}
  m_LocalPosition: {x: 0, y: 0, z: 0}
  m_LocalScale: {x: 1, y: 1, z: 1}
  m_Children: []
  m_Father: {fileID: 5794313813365048876}
  m_RootOrder: 0
  m_LocalEulerAnglesHint: {x: 0, y: 0, z: 0}
--- !u!1839735485 &4711328947242849152
Tilemap:
  m_ObjectHideFlags: 0
  m_CorrespondingSourceObject: {fileID: 0}
  m_PrefabInstance: {fileID: 0}
  m_PrefabAsset: {fileID: 0}
  m_GameObject: {fileID: 4915503981619166303}
  m_Enabled: 1
  m_Tiles:
  - first: {x: -2, y: -6, z: 0}
    second:
      serializedVersion: 2
      m_TileIndex: 30
      m_TileSpriteIndex: 30
      m_TileMatrixIndex: 0
      m_TileColorIndex: 0
      m_TileObjectToInstantiateIndex: 65535
      dummyAlignment: 0
      m_AllTileFlags: 1073741825
  - first: {x: -1, y: -6, z: 0}
    second:
      serializedVersion: 2
      m_TileIndex: 31
      m_TileSpriteIndex: 31
      m_TileMatrixIndex: 0
      m_TileColorIndex: 0
      m_TileObjectToInstantiateIndex: 65535
      dummyAlignment: 0
      m_AllTileFlags: 1073741825
  - first: {x: 0, y: -6, z: 0}
    second:
      serializedVersion: 2
      m_TileIndex: 32
      m_TileSpriteIndex: 32
      m_TileMatrixIndex: 0
      m_TileColorIndex: 0
      m_TileObjectToInstantiateIndex: 65535
      dummyAlignment: 0
      m_AllTileFlags: 1073741825
  - first: {x: 1, y: -6, z: 0}
    second:
      serializedVersion: 2
      m_TileIndex: 33
      m_TileSpriteIndex: 33
      m_TileMatrixIndex: 0
      m_TileColorIndex: 0
      m_TileObjectToInstantiateIndex: 65535
      dummyAlignment: 0
      m_AllTileFlags: 1073741825
  - first: {x: -2, y: -5, z: 0}
    second:
      serializedVersion: 2
      m_TileIndex: 24
      m_TileSpriteIndex: 24
      m_TileMatrixIndex: 0
      m_TileColorIndex: 0
      m_TileObjectToInstantiateIndex: 65535
      dummyAlignment: 0
      m_AllTileFlags: 1073741825
  - first: {x: -1, y: -5, z: 0}
    second:
      serializedVersion: 2
      m_TileIndex: 25
      m_TileSpriteIndex: 25
      m_TileMatrixIndex: 0
      m_TileColorIndex: 0
      m_TileObjectToInstantiateIndex: 65535
      dummyAlignment: 0
      m_AllTileFlags: 1073741825
  - first: {x: 0, y: -5, z: 0}
    second:
      serializedVersion: 2
      m_TileIndex: 26
      m_TileSpriteIndex: 26
      m_TileMatrixIndex: 0
      m_TileColorIndex: 0
      m_TileObjectToInstantiateIndex: 65535
      dummyAlignment: 0
      m_AllTileFlags: 1073741825
  - first: {x: 1, y: -5, z: 0}
    second:
      serializedVersion: 2
      m_TileIndex: 27
      m_TileSpriteIndex: 27
      m_TileMatrixIndex: 0
      m_TileColorIndex: 0
      m_TileObjectToInstantiateIndex: 65535
      dummyAlignment: 0
      m_AllTileFlags: 1073741825
  - first: {x: 2, y: -5, z: 0}
    second:
      serializedVersion: 2
      m_TileIndex: 28
      m_TileSpriteIndex: 28
      m_TileMatrixIndex: 0
      m_TileColorIndex: 0
      m_TileObjectToInstantiateIndex: 65535
      dummyAlignment: 0
      m_AllTileFlags: 1073741825
  - first: {x: 3, y: -5, z: 0}
    second:
      serializedVersion: 2
      m_TileIndex: 29
      m_TileSpriteIndex: 29
      m_TileMatrixIndex: 0
      m_TileColorIndex: 0
      m_TileObjectToInstantiateIndex: 65535
      dummyAlignment: 0
      m_AllTileFlags: 1073741825
  - first: {x: -2, y: -4, z: 0}
    second:
      serializedVersion: 2
      m_TileIndex: 18
      m_TileSpriteIndex: 18
      m_TileMatrixIndex: 0
      m_TileColorIndex: 0
      m_TileObjectToInstantiateIndex: 65535
      dummyAlignment: 0
      m_AllTileFlags: 1073741825
  - first: {x: -1, y: -4, z: 0}
    second:
      serializedVersion: 2
      m_TileIndex: 19
      m_TileSpriteIndex: 19
      m_TileMatrixIndex: 0
      m_TileColorIndex: 0
      m_TileObjectToInstantiateIndex: 65535
      dummyAlignment: 0
      m_AllTileFlags: 1073741825
  - first: {x: 0, y: -4, z: 0}
    second:
      serializedVersion: 2
      m_TileIndex: 20
      m_TileSpriteIndex: 20
      m_TileMatrixIndex: 0
      m_TileColorIndex: 0
      m_TileObjectToInstantiateIndex: 65535
      dummyAlignment: 0
      m_AllTileFlags: 1073741825
  - first: {x: 1, y: -4, z: 0}
    second:
      serializedVersion: 2
      m_TileIndex: 21
      m_TileSpriteIndex: 21
      m_TileMatrixIndex: 0
      m_TileColorIndex: 0
      m_TileObjectToInstantiateIndex: 65535
      dummyAlignment: 0
      m_AllTileFlags: 1073741825
  - first: {x: 2, y: -4, z: 0}
    second:
      serializedVersion: 2
      m_TileIndex: 22
      m_TileSpriteIndex: 22
      m_TileMatrixIndex: 0
      m_TileColorIndex: 0
      m_TileObjectToInstantiateIndex: 65535
      dummyAlignment: 0
      m_AllTileFlags: 1073741825
  - first: {x: 3, y: -4, z: 0}
    second:
      serializedVersion: 2
      m_TileIndex: 23
      m_TileSpriteIndex: 23
      m_TileMatrixIndex: 0
      m_TileColorIndex: 0
      m_TileObjectToInstantiateIndex: 65535
      dummyAlignment: 0
      m_AllTileFlags: 1073741825
  - first: {x: -2, y: -3, z: 0}
    second:
      serializedVersion: 2
      m_TileIndex: 12
      m_TileSpriteIndex: 12
      m_TileMatrixIndex: 0
      m_TileColorIndex: 0
      m_TileObjectToInstantiateIndex: 65535
      dummyAlignment: 0
      m_AllTileFlags: 1073741825
  - first: {x: -1, y: -3, z: 0}
    second:
      serializedVersion: 2
      m_TileIndex: 13
      m_TileSpriteIndex: 13
      m_TileMatrixIndex: 0
      m_TileColorIndex: 0
      m_TileObjectToInstantiateIndex: 65535
      dummyAlignment: 0
      m_AllTileFlags: 1073741825
  - first: {x: 0, y: -3, z: 0}
    second:
      serializedVersion: 2
      m_TileIndex: 14
      m_TileSpriteIndex: 14
      m_TileMatrixIndex: 0
      m_TileColorIndex: 0
      m_TileObjectToInstantiateIndex: 65535
      dummyAlignment: 0
      m_AllTileFlags: 1073741825
  - first: {x: 1, y: -3, z: 0}
    second:
      serializedVersion: 2
      m_TileIndex: 15
      m_TileSpriteIndex: 15
      m_TileMatrixIndex: 0
      m_TileColorIndex: 0
      m_TileObjectToInstantiateIndex: 65535
      dummyAlignment: 0
      m_AllTileFlags: 1073741825
  - first: {x: 2, y: -3, z: 0}
    second:
      serializedVersion: 2
      m_TileIndex: 16
      m_TileSpriteIndex: 16
      m_TileMatrixIndex: 0
      m_TileColorIndex: 0
      m_TileObjectToInstantiateIndex: 65535
      dummyAlignment: 0
      m_AllTileFlags: 1073741825
  - first: {x: 3, y: -3, z: 0}
    second:
      serializedVersion: 2
      m_TileIndex: 17
      m_TileSpriteIndex: 17
      m_TileMatrixIndex: 0
      m_TileColorIndex: 0
      m_TileObjectToInstantiateIndex: 65535
      dummyAlignment: 0
      m_AllTileFlags: 1073741825
  - first: {x: -2, y: -2, z: 0}
    second:
      serializedVersion: 2
      m_TileIndex: 6
      m_TileSpriteIndex: 6
      m_TileMatrixIndex: 0
      m_TileColorIndex: 0
      m_TileObjectToInstantiateIndex: 65535
      dummyAlignment: 0
      m_AllTileFlags: 1073741825
  - first: {x: -1, y: -2, z: 0}
    second:
      serializedVersion: 2
      m_TileIndex: 7
      m_TileSpriteIndex: 7
      m_TileMatrixIndex: 0
      m_TileColorIndex: 0
      m_TileObjectToInstantiateIndex: 65535
      dummyAlignment: 0
      m_AllTileFlags: 1073741825
  - first: {x: 0, y: -2, z: 0}
    second:
      serializedVersion: 2
      m_TileIndex: 8
      m_TileSpriteIndex: 8
      m_TileMatrixIndex: 0
      m_TileColorIndex: 0
      m_TileObjectToInstantiateIndex: 65535
      dummyAlignment: 0
      m_AllTileFlags: 1073741825
  - first: {x: 1, y: -2, z: 0}
    second:
      serializedVersion: 2
      m_TileIndex: 9
      m_TileSpriteIndex: 9
      m_TileMatrixIndex: 0
      m_TileColorIndex: 0
      m_TileObjectToInstantiateIndex: 65535
      dummyAlignment: 0
      m_AllTileFlags: 1073741825
  - first: {x: 2, y: -2, z: 0}
    second:
      serializedVersion: 2
      m_TileIndex: 10
      m_TileSpriteIndex: 10
      m_TileMatrixIndex: 0
      m_TileColorIndex: 0
      m_TileObjectToInstantiateIndex: 65535
      dummyAlignment: 0
      m_AllTileFlags: 1073741825
  - first: {x: 3, y: -2, z: 0}
    second:
      serializedVersion: 2
      m_TileIndex: 11
      m_TileSpriteIndex: 11
      m_TileMatrixIndex: 0
      m_TileColorIndex: 0
      m_TileObjectToInstantiateIndex: 65535
      dummyAlignment: 0
      m_AllTileFlags: 1073741825
  - first: {x: -2, y: -1, z: 0}
    second:
      serializedVersion: 2
      m_TileIndex: 0
      m_TileSpriteIndex: 0
      m_TileMatrixIndex: 0
      m_TileColorIndex: 0
      m_TileObjectToInstantiateIndex: 65535
      dummyAlignment: 0
      m_AllTileFlags: 1073741825
  - first: {x: -1, y: -1, z: 0}
    second:
      serializedVersion: 2
      m_TileIndex: 1
      m_TileSpriteIndex: 1
      m_TileMatrixIndex: 0
      m_TileColorIndex: 0
      m_TileObjectToInstantiateIndex: 65535
      dummyAlignment: 0
      m_AllTileFlags: 1073741825
  - first: {x: 0, y: -1, z: 0}
    second:
      serializedVersion: 2
      m_TileIndex: 2
      m_TileSpriteIndex: 2
      m_TileMatrixIndex: 0
      m_TileColorIndex: 0
      m_TileObjectToInstantiateIndex: 65535
      dummyAlignment: 0
      m_AllTileFlags: 1073741825
  - first: {x: 1, y: -1, z: 0}
    second:
      serializedVersion: 2
      m_TileIndex: 3
      m_TileSpriteIndex: 3
      m_TileMatrixIndex: 0
      m_TileColorIndex: 0
      m_TileObjectToInstantiateIndex: 65535
      dummyAlignment: 0
      m_AllTileFlags: 1073741825
  - first: {x: 2, y: -1, z: 0}
    second:
      serializedVersion: 2
      m_TileIndex: 4
      m_TileSpriteIndex: 4
      m_TileMatrixIndex: 0
      m_TileColorIndex: 0
      m_TileObjectToInstantiateIndex: 65535
      dummyAlignment: 0
      m_AllTileFlags: 1073741825
  - first: {x: 3, y: -1, z: 0}
    second:
      serializedVersion: 2
      m_TileIndex: 5
      m_TileSpriteIndex: 5
      m_TileMatrixIndex: 0
      m_TileColorIndex: 0
      m_TileObjectToInstantiateIndex: 65535
      dummyAlignment: 0
      m_AllTileFlags: 1073741825
  m_AnimatedTiles: {}
  m_TileAssetArray:
  - m_RefCount: 1
    m_Data: {fileID: 11400000, guid: d242d9d55682bc24981d07cf0112f9b1, type: 2}
  - m_RefCount: 1
    m_Data: {fileID: 11400000, guid: 8bf3d8e2080e7ad498c2a46570b53070, type: 2}
  - m_RefCount: 1
    m_Data: {fileID: 11400000, guid: f911f4450f8e9584f861dbcb52b4317d, type: 2}
  - m_RefCount: 1
    m_Data: {fileID: 11400000, guid: 4cde18a4d02731c40a09150eb95acc61, type: 2}
  - m_RefCount: 1
    m_Data: {fileID: 11400000, guid: cfe7bd124ffe0504dbe751af2ffc2a00, type: 2}
  - m_RefCount: 1
    m_Data: {fileID: 11400000, guid: cd655140b06c6fd4aa436f9b01b0f74f, type: 2}
  - m_RefCount: 1
    m_Data: {fileID: 11400000, guid: 9b2fc08e5ca47174382f1bdee1f9c36c, type: 2}
  - m_RefCount: 1
    m_Data: {fileID: 11400000, guid: b4752d4d1485e80498ee74710f82fcd6, type: 2}
  - m_RefCount: 1
    m_Data: {fileID: 11400000, guid: 58b2977293a00274bb34284db354614b, type: 2}
  - m_RefCount: 1
    m_Data: {fileID: 11400000, guid: 2beb074e90b711c4a81e005642207c9d, type: 2}
  - m_RefCount: 1
    m_Data: {fileID: 11400000, guid: c602891a8f35d8a4ab55d853e3d94470, type: 2}
  - m_RefCount: 1
    m_Data: {fileID: 11400000, guid: 64e444f46938fd149bb925d6a32c46cc, type: 2}
  - m_RefCount: 1
    m_Data: {fileID: 11400000, guid: 73eb317a2457dcd4fa722b6acb85c32b, type: 2}
  - m_RefCount: 1
    m_Data: {fileID: 11400000, guid: eacbfa2ebc6608343a9fb9250f54e31d, type: 2}
  - m_RefCount: 1
    m_Data: {fileID: 11400000, guid: f42d2681fe2b12a4489f301d3f32fddd, type: 2}
  - m_RefCount: 1
    m_Data: {fileID: 11400000, guid: b61e80ef4a850134c8075ff8addc3d96, type: 2}
  - m_RefCount: 1
    m_Data: {fileID: 11400000, guid: d199b425bd6e0a6448598d14831167bb, type: 2}
  - m_RefCount: 1
    m_Data: {fileID: 11400000, guid: 2db920eeccb355f498310a258761dc1f, type: 2}
  - m_RefCount: 1
    m_Data: {fileID: 11400000, guid: 66ff8b6bec160224a8c7311686f8f311, type: 2}
  - m_RefCount: 1
    m_Data: {fileID: 11400000, guid: 48e85761268df6c4a97eb095db91fadb, type: 2}
  - m_RefCount: 1
    m_Data: {fileID: 11400000, guid: 6852920a274a9a346b3b104ddec9d7e7, type: 2}
  - m_RefCount: 1
    m_Data: {fileID: 11400000, guid: b7c43440464719c47bb87bae240457e5, type: 2}
  - m_RefCount: 1
    m_Data: {fileID: 11400000, guid: 6e287fc048568ba45adb7ec436e0d371, type: 2}
  - m_RefCount: 1
    m_Data: {fileID: 11400000, guid: 660fab562d3469546bd624e01f4bf2f8, type: 2}
  - m_RefCount: 1
    m_Data: {fileID: 11400000, guid: 8df1554d8da1fb14b902c9b449eb9c52, type: 2}
  - m_RefCount: 1
    m_Data: {fileID: 11400000, guid: c7411f0eddc5e2845a54f3af10e211c9, type: 2}
  - m_RefCount: 1
    m_Data: {fileID: 11400000, guid: c4358b59caf04eb49a4e254605a3dd6d, type: 2}
  - m_RefCount: 1
    m_Data: {fileID: 11400000, guid: 194a26f8fd7d5044d9f88497a6a09514, type: 2}
  - m_RefCount: 1
    m_Data: {fileID: 11400000, guid: 028825612fbc2d144ad494dfde736de5, type: 2}
  - m_RefCount: 1
    m_Data: {fileID: 11400000, guid: 46c81edd6c9a4c04489000cd62b9651d, type: 2}
  - m_RefCount: 1
    m_Data: {fileID: 11400000, guid: 49aee9400e24a6c4a8ccb8ef5fe1bc66, type: 2}
  - m_RefCount: 1
    m_Data: {fileID: 11400000, guid: fdd8684aee500ac448c167452cfa1438, type: 2}
  - m_RefCount: 1
    m_Data: {fileID: 11400000, guid: 4d942cbb6592f064387322b0dd672c30, type: 2}
  - m_RefCount: 1
    m_Data: {fileID: 11400000, guid: 56998151536682a4580054631d098596, type: 2}
  m_TileSpriteArray:
  - m_RefCount: 1
    m_Data: {fileID: 21300000, guid: ed7de711c6ed45a419d9d0774ec2d651, type: 3}
  - m_RefCount: 1
    m_Data: {fileID: 21300000, guid: 9c400249c3a8d0449a0776ffc43ab5a7, type: 3}
  - m_RefCount: 1
    m_Data: {fileID: 21300000, guid: d584e7f7a2c902e458bcf7db7b14c65c, type: 3}
  - m_RefCount: 1
    m_Data: {fileID: 21300000, guid: 2c6da6de413f9d247857d8db01202bc2, type: 3}
  - m_RefCount: 1
    m_Data: {fileID: 21300000, guid: 416f7581c5f0ad24c9d91e8f3c4f84c3, type: 3}
  - m_RefCount: 1
    m_Data: {fileID: 21300000, guid: a5e452d9c123fca4ba97036b370efebe, type: 3}
  - m_RefCount: 1
    m_Data: {fileID: 21300000, guid: 5b417972b4ee6e64488d28b5f7a8e576, type: 3}
  - m_RefCount: 1
    m_Data: {fileID: 21300000, guid: fe0fe4dd67749a34f8d9fef85e7c745c, type: 3}
  - m_RefCount: 1
    m_Data: {fileID: 21300000, guid: aaab32067c0579e43a348b131e39303b, type: 3}
  - m_RefCount: 1
    m_Data: {fileID: 21300000, guid: 094c988a0734a0544bbdf5628029b1f2, type: 3}
  - m_RefCount: 1
    m_Data: {fileID: 21300000, guid: 133e6794d166c4d4594417a1d8523cf3, type: 3}
  - m_RefCount: 1
    m_Data: {fileID: 21300000, guid: bdb0009f0a61d72498d216851eebcdf0, type: 3}
  - m_RefCount: 1
    m_Data: {fileID: 21300000, guid: d3400777b23b54143a1b71d432f5791c, type: 3}
  - m_RefCount: 1
    m_Data: {fileID: 21300000, guid: 000207c915a540846881f1fd39478908, type: 3}
  - m_RefCount: 1
    m_Data: {fileID: 21300000, guid: a2019109c41112544ab6ddebf4293445, type: 3}
  - m_RefCount: 1
    m_Data: {fileID: 21300000, guid: b1b37f14ab613694fa87291e644b7f64, type: 3}
  - m_RefCount: 1
    m_Data: {fileID: 21300000, guid: 4fb12cb17d6793c48af241272932de0b, type: 3}
  - m_RefCount: 1
    m_Data: {fileID: 21300000, guid: f881c1ec005677a47bbc191b73b15c59, type: 3}
  - m_RefCount: 1
    m_Data: {fileID: 21300000, guid: c200e6840bfe39744ac6f64bf2cc47ad, type: 3}
  - m_RefCount: 1
    m_Data: {fileID: 21300000, guid: 44c3787c259d8ec4e976e57df20d7a5e, type: 3}
  - m_RefCount: 1
    m_Data: {fileID: 21300000, guid: 3e8f0396158959543bee68cf450ea04d, type: 3}
  - m_RefCount: 1
    m_Data: {fileID: 21300000, guid: 1d503eb707a935a4dad46869b6c33292, type: 3}
  - m_RefCount: 1
    m_Data: {fileID: 21300000, guid: 383dea8737240104281d17c2d10d9eb5, type: 3}
  - m_RefCount: 1
    m_Data: {fileID: 21300000, guid: 3624a44ba6181aa47bef3868d26f9f4a, type: 3}
  - m_RefCount: 1
    m_Data: {fileID: 21300000, guid: 4802eb907cb033d4cbc3e33c64afc176, type: 3}
  - m_RefCount: 1
    m_Data: {fileID: 21300000, guid: 47282243012e423448251fac52a24ab4, type: 3}
  - m_RefCount: 1
    m_Data: {fileID: 21300000, guid: 908c94f42d3f220499d0c189115dd74c, type: 3}
  - m_RefCount: 1
    m_Data: {fileID: 21300000, guid: 43a54f29aea59314d9c0f01802d1a1b6, type: 3}
  - m_RefCount: 1
    m_Data: {fileID: 21300000, guid: a2ad6f6ba1345e544a054e9e7a78f5e5, type: 3}
  - m_RefCount: 1
    m_Data: {fileID: 21300000, guid: 9ce8a179dd72f66409ec19944f54e316, type: 3}
  - m_RefCount: 1
    m_Data: {fileID: 21300000, guid: d72caf52f22ec7d47ae04392fcf7227e, type: 3}
  - m_RefCount: 1
    m_Data: {fileID: 21300000, guid: 7584d6bb868caee47b24d330c3c5b849, type: 3}
  - m_RefCount: 1
    m_Data: {fileID: 21300000, guid: 548cae4b4e579864caaba7b922bfe4d8, type: 3}
  - m_RefCount: 1
    m_Data: {fileID: 21300000, guid: 1566c2951bcbc9d429763df0ca916c6a, type: 3}
  m_TileMatrixArray:
  - m_RefCount: 34
    m_Data:
      e00: 1
      e01: 0
      e02: 0
      e03: 0
      e10: 0
      e11: 1
      e12: 0
      e13: 0
      e20: 0
      e21: 0
      e22: 1
      e23: 0
      e30: 0
      e31: 0
      e32: 0
      e33: 1
  m_TileColorArray:
  - m_RefCount: 34
    m_Data: {r: 1, g: 1, b: 1, a: 1}
  m_TileObjectToInstantiateArray: []
  m_AnimationFrameRate: 1
  m_Color: {r: 1, g: 1, b: 1, a: 1}
  m_Origin: {x: -2, y: -6, z: 0}
  m_Size: {x: 6, y: 6, z: 1}
  m_TileAnchor: {x: 0.5, y: 0.5, z: 0}
  m_TileOrientation: 0
  m_TileOrientationMatrix:
    e00: 1
    e01: 0
    e02: 0
    e03: 0
    e10: 0
    e11: 1
    e12: 0
    e13: 0
    e20: 0
    e21: 0
    e22: 1
    e23: 0
    e30: 0
    e31: 0
    e32: 0
    e33: 1
--- !u!483693784 &5378729723534989236
TilemapRenderer:
  m_ObjectHideFlags: 0
  m_CorrespondingSourceObject: {fileID: 0}
  m_PrefabInstance: {fileID: 0}
  m_PrefabAsset: {fileID: 0}
  m_GameObject: {fileID: 4915503981619166303}
  m_Enabled: 1
  m_CastShadows: 0
  m_ReceiveShadows: 0
  m_DynamicOccludee: 0
  m_MotionVectors: 1
  m_LightProbeUsage: 0
  m_ReflectionProbeUsage: 0
  m_RayTracingMode: 0
  m_RayTraceProcedural: 0
  m_RenderingLayerMask: 1
  m_RendererPriority: 0
  m_Materials:
  - {fileID: 10754, guid: 0000000000000000f000000000000000, type: 0}
  m_StaticBatchInfo:
    firstSubMesh: 0
    subMeshCount: 0
  m_StaticBatchRoot: {fileID: 0}
  m_ProbeAnchor: {fileID: 0}
  m_LightProbeVolumeOverride: {fileID: 0}
  m_ScaleInLightmap: 1
  m_ReceiveGI: 1
  m_PreserveUVs: 0
  m_IgnoreNormalsForChartDetection: 0
  m_ImportantGI: 0
  m_StitchLightmapSeams: 1
  m_SelectedEditorRenderState: 0
  m_MinimumChartSize: 4
  m_AutoUVMaxDistance: 0.5
  m_AutoUVMaxAngle: 89
  m_LightmapParameters: {fileID: 0}
  m_SortingLayerID: 0
  m_SortingLayer: 0
  m_SortingOrder: 0
  m_ChunkSize: {x: 32, y: 32, z: 32}
  m_ChunkCullingBounds: {x: 0.13999999, y: 0.13999999, z: 0}
  m_MaxChunkCount: 16
  m_MaxFrameAge: 16
  m_SortOrder: 0
  m_Mode: 0
  m_DetectChunkCullingBounds: 0
  m_MaskInteraction: 0
--- !u!114 &9015343715959162653
MonoBehaviour:
  m_ObjectHideFlags: 0
  m_CorrespondingSourceObject: {fileID: 0}
  m_PrefabInstance: {fileID: 0}
  m_PrefabAsset: {fileID: 0}
  m_GameObject: {fileID: 0}
  m_Enabled: 1
  m_EditorHideFlags: 0
  m_Script: {fileID: 12395, guid: 0000000000000000e000000000000000, type: 0}
  m_Name: Palette Settings
  m_EditorClassIdentifier: 
  cellSizing: 0
  m_TransparencySortMode: 0
  m_TransparencySortAxis: {x: 0, y: 0, z: 1}
